…
The amount of waste released from industrial factories is categorized into the separate release routes in order to better evaluate the waste management system as well as gauge environmental and human impact. From the literature and TRI website, most analysis is categorized between onsite and offsite waste. Offsite waste is the waste transported away for processing and disposal at waste management facilities or reused for other industrial processes. Onsite waste is the waste released directly from the factory into the environment. This category is further divided into waste released into the air, water, or land. We are most interested in evaluating these routes as these are the paths that most directly impact the health of individuals living near industrial facilities.

#### Common Carcinogens Released

We wanted to first identify which chemicals we would have the most information for further analysis. Some common ones we found included notable carcinogens: styrene, formaldehyde, lead, benzene, and asbestos.

``` r
# Group by common carcinogens and summarize counts
tri_df = readRDS("./data/tri_df.rds")
cancer_pop_df = readRDS("./data/cancer_county_chem_pop.rds")
cancer_pop_df
```

    ## # A tibble: 1,136,431 x 9
    ## # Groups:   chemical, st, county [3,056]
    ##    chemical st    county  year total_rel_summ cancer     n pop_est
    ##    <chr>    <chr> <chr>  <int>          <dbl> <fct>  <int>   <dbl>
    ##  1 ASBESTO… ca    kings   2000        6488714 ALL        3  129774
    ##  2 ASBESTO… ca    kings   2000        6488714 AML        4  129774
    ##  3 ASBESTO… ca    kings   2000        6488714 bladd…    13  129774
    ##  4 ASBESTO… ca    kings   2000        6488714 brain      6  129774
    ##  5 ASBESTO… ca    kings   2000        6488714 breast    63  129774
    ##  6 ASBESTO… ca    kings   2000        6488714 breas…    10  129774
    ##  7 ASBESTO… ca    kings   2000        6488714 cervix     8  129774
    ##  8 ASBESTO… ca    kings   2000        6488714 CLL        3  129774
    ##  9 ASBESTO… ca    kings   2000        6488714 CML        1  129774
    ## 10 ASBESTO… ca    kings   2000        6488714 colon     17  129774
    ## # ... with 1,136,421 more rows, and 1 more variable: prevalence <dbl>

``` r
tri_df %>% 
  group_by(chemical) %>% 
  summarize(onsite_release_total = sum(on_site_release_total)) %>% 
  arrange(-onsite_release_total)
```

    ## # A tibble: 166 x 2
    ##    chemical            onsite_release_total
    ##    <chr>                              <dbl>
    ##  1 STYRENE                      1183451999.
    ##  2 DICHLOROMETHANE              1166320724.
    ##  3 FORMALDEHYDE                  632933364.
    ##  4 TRICHLOROETHYLENE             501959108.
    ##  5 ACETALDEHYDE                  357033097.
    ##  6 LEAD                          321198063.
    ##  7 BENZENE                       318018516.
    ##  8 ASBESTOS (FRIABLE)            285320235.
    ##  9 TETRACHLOROETHYLENE           239930034.
    ## 10 ACRYLONITRILE                 237024057.
    ## # ... with 156 more rows
…
